{
  "version": 4,
  "configurePresets": [
    {
      "name": "x64-debug",
      "toolchainFile": "$env{VCPKG_ROOT}\\scripts\\buildsystems\\vcpkg.cmake",
      "displayName": "Windows x64 Debug",
      "description": "Sets Ninja generator, compilers, x64 architecture, build and install directory, debug build type",
      "generator": "Ninja",
      "binaryDir": "${sourceDir}/out/build/${presetName}",
      "architecture": {
        "value": "x64",
        "strategy": "external"
      },
      "cacheVariables": {
        "CMAKE_INSTALL_PREFIX": "${sourceDir}/out/install/${presetName}",
        "TESTING": true
      },
      "vendor": {
        "microsoft.com/VisualStudioSettings/CMake/1.0": {
          "hostOS": [
            "Windows"
          ]
        }
      }
    },
    {
      "name": "x64-debug-asan",
      "toolchainFile": "$env{VCPKG_ROOT}\\scripts\\buildsystems\\vcpkg.cmake",
      "displayName": "Windows x64 ASan",
      "description": "Sets Ninja generator, compilers, x64 architecture, build and install directory, debug build type",
      "generator": "Ninja",
      "binaryDir": "${sourceDir}/out/build/${presetName}",
      "architecture": {
        "value": "x64",
        "strategy": "external"
      },
      "cacheVariables": {
        "CMAKE_INSTALL_PREFIX": "${sourceDir}/out/install/${presetName}",
        "TESTING": true
      },
      "environment": {
        "CFLAGS": "/fsanitize=address",
        "CXXFLAGS": "/fsanitize=address"
      },
      "vendor": {
        "microsoft.com/VisualStudioSettings/CMake/1.0": {
          "hostOS": [
            "Windows"
          ]
        }
      }
    },
    {
      "name": "x64-release",
      "displayName": "Windows x64 Release",
      "description": "Target Windows (64-bit) with the Visual Studio development environment. (RelWithDebInfo)",
      "inherits": "x64-debug",
      "cacheVariables": {
        "CMAKE_BUILD_TYPE": "Release"
      }
    }
  ]
}
